"Part";"Value";"Device";"Package";"Description";"";
"ATMEGA88PA";"MEGA8-AI";"MEGA8-AI";"TQFP32-08";"MICROCONTROLLER";"";
"C1";"100uF";"CPOL-EUCT6032";"CT6032";"POLARIZED CAPACITOR, European symbol";"";
"C2";"100uF";"CPOL-EUCT6032";"CT6032";"POLARIZED CAPACITOR, European symbol";"";
"C3";"100nF";"C-EUC0805";"C0805";"CAPACITOR, European symbol";"";
"C4";"100nF";"C-EUC0805";"C0805";"CAPACITOR, European symbol";"";
"C5";"100n";"C-EUC0805";"C0805";"CAPACITOR, European symbol";"";
"C6";"100nF";"C-EUC0805";"C0805";"CAPACITOR, European symbol";"";
"C7";"22p";"C-EUC0805";"C0805";"CAPACITOR, European symbol";"";
"C8";"22p";"C-EUC0805";"C0805";"CAPACITOR, European symbol";"";
"C9";"100n";"C-EUC0805";"C0805";"CAPACITOR, European symbol";"";
"GND";"";"PINHD-1X1";"1X01";"PIN HEADER";"";
"IC1";"DS18B20";"DS18B20";"TO92-";"Programmable Resolution Digital Thermometer";"";
"IC2";"MODUL_POLOLU";"MODUL_POLOLU";"MODUL_POLOLU";"";"";
"ISP";"";"PINHD-2X5";"2X05";"PIN HEADER";"";
"LED1";"";"LEDCHIP-LED0805";"CHIP-LED0805";"LED";"";
"LED2";"";"LEDCHIP-LED0805";"CHIP-LED0805";"LED";"";
"LED3";"";"LEDCHIP-LED0805";"CHIP-LED0805";"LED";"";
"LM1117";"";"LM1117";"SOT223";"";"";
"Q1";"16 MHz";"CSM-7X-DU";"CSM-7X-DU";"SMD CRYSTAL";"";
"R1";"10k";"R-EU_R0805";"R0805";"RESISTOR, European symbol";"";
"R2";"10uH";"R-EU_M0805";"M0805";"RESISTOR, European symbol";"";
"R3";"4k7";"R-EU_R0805";"R0805";"RESISTOR, European symbol";"";
"R4";"3k3";"R-EU_R0805";"R0805";"RESISTOR, European symbol";"";
"R5";"4k7";"R-EU_R0805";"R0805";"RESISTOR, European symbol";"";
"R6";"150R";"R-EU_R0805";"R0805";"RESISTOR, European symbol";"";
"R7";"150R";"R-EU_R0805";"R0805";"RESISTOR, European symbol";"";
"R8";"150R";"R-EU_R0805";"R0805";"RESISTOR, European symbol";"";
"S1";"DTSM-6";"DTSM-6";"DTSM-6";"";"";
"SERWO";"";"PINHD-1X3";"1X03";"PIN HEADER";"";
"SHARP1";"";"PINHD-1X3";"1X03";"PIN HEADER";"";
"SHARP2";"";"PINHD-1X3";"1X03";"PIN HEADER";"";
"SILNIK1";"";"PINHD-1X2";"1X02";"PIN HEADER";"";
"SILNIK2";"";"PINHD-1X2";"1X02";"PIN HEADER";"";
"SILNIK2A";"";"PINHD-1X2";"1X02";"PIN HEADER";"";
"SILNIK2B";"";"PINHD-1X2";"1X02";"PIN HEADER";"";
"SONAR";"";"PINHD-1X4";"1X04";"PIN HEADER";"";
"USART";"";"PINHD-1X4";"1X04";"PIN HEADER";"";
"ZASILANIE";"";"PINHD-1X2/90";"1X02/90";"PIN HEADER";"";
"ZWORKA";"";"PINHD-1X2";"1X02";"PIN HEADER";"";
