G75*
G70*
%OFA0B0*%
%FSLAX24Y24*%
%IPPOS*%
%LPD*%
%AMOC8*
5,1,8,0,0,1.08239X$1,22.5*
%
%ADD10C,0.0060*%
%ADD11C,0.0030*%
%ADD12C,0.0050*%
%ADD13C,0.0080*%
%ADD14C,0.0040*%
%ADD15C,0.0010*%
%ADD16R,0.0118X0.0059*%
%ADD17R,0.0118X0.0118*%
D10*
X004930Y001430D02*
X005180Y001180D01*
X005680Y001180D01*
X005930Y001430D01*
X005930Y001930D01*
X005680Y002180D01*
X005930Y002430D01*
X005930Y002930D01*
X005680Y003180D01*
X005930Y003430D01*
X005930Y003930D01*
X005680Y004180D01*
X005180Y004180D01*
X004930Y003930D01*
X004930Y003430D01*
X005180Y003180D01*
X005680Y003180D01*
X005180Y003180D02*
X004930Y002930D01*
X004930Y002430D01*
X005180Y002180D01*
X005680Y002180D01*
X005180Y002180D02*
X004930Y001930D01*
X004930Y001430D01*
X007680Y001430D02*
X007930Y001180D01*
X008430Y001180D01*
X008680Y001430D01*
X008680Y001930D01*
X008430Y002180D01*
X008680Y002430D01*
X008680Y002930D01*
X008430Y003180D01*
X007930Y003180D01*
X007680Y002930D01*
X007680Y002430D01*
X007930Y002180D01*
X008430Y002180D01*
X007930Y002180D02*
X007680Y001930D01*
X007680Y001430D01*
X007930Y003180D02*
X007680Y003430D01*
X007680Y003930D01*
X007930Y004180D01*
X007680Y004430D01*
X007680Y004930D01*
X007930Y005180D01*
X008430Y005180D01*
X008680Y004930D01*
X008680Y004430D01*
X008430Y004180D01*
X008680Y003930D01*
X008680Y003430D01*
X008430Y003180D01*
X008430Y004180D02*
X007930Y004180D01*
X007330Y007105D02*
X007330Y008755D01*
X006730Y008483D02*
X006730Y008377D01*
X006730Y007483D02*
X006730Y007377D01*
X006550Y010550D02*
X006550Y013170D01*
X006690Y013310D01*
X009310Y013310D01*
X009310Y010550D01*
X006550Y010550D01*
X006709Y013010D02*
X006711Y013033D01*
X006717Y013056D01*
X006726Y013077D01*
X006739Y013097D01*
X006755Y013114D01*
X006773Y013128D01*
X006793Y013139D01*
X006815Y013147D01*
X006838Y013151D01*
X006862Y013151D01*
X006885Y013147D01*
X006907Y013139D01*
X006927Y013128D01*
X006945Y013114D01*
X006961Y013097D01*
X006974Y013077D01*
X006983Y013056D01*
X006989Y013033D01*
X006991Y013010D01*
X006989Y012987D01*
X006983Y012964D01*
X006974Y012943D01*
X006961Y012923D01*
X006945Y012906D01*
X006927Y012892D01*
X006907Y012881D01*
X006885Y012873D01*
X006862Y012869D01*
X006838Y012869D01*
X006815Y012873D01*
X006793Y012881D01*
X006773Y012892D01*
X006755Y012906D01*
X006739Y012923D01*
X006726Y012943D01*
X006717Y012964D01*
X006711Y012987D01*
X006709Y013010D01*
X006930Y015430D02*
X006430Y015430D01*
X006180Y015680D01*
X006180Y016180D01*
X006430Y016430D01*
X006180Y016680D01*
X006180Y017180D01*
X006430Y017430D01*
X006180Y017680D01*
X006180Y018180D01*
X006430Y018430D01*
X006930Y018430D01*
X007180Y018180D01*
X007180Y017680D01*
X006930Y017430D01*
X007180Y017180D01*
X007180Y016680D01*
X006930Y016430D01*
X007180Y016180D01*
X007180Y015680D01*
X006930Y015430D01*
X006930Y016430D02*
X006430Y016430D01*
X006430Y017430D02*
X006930Y017430D01*
X007930Y017180D02*
X007930Y016680D01*
X008180Y016430D01*
X007930Y016180D01*
X007930Y015680D01*
X008180Y015430D01*
X008680Y015430D01*
X008930Y015680D01*
X008930Y016180D01*
X008680Y016430D01*
X008180Y016430D01*
X008680Y016430D02*
X008930Y016680D01*
X008930Y017180D01*
X008680Y017430D01*
X008180Y017430D01*
X007930Y017180D01*
X008180Y017430D02*
X007930Y017680D01*
X007930Y018180D01*
X008180Y018430D01*
X008680Y018430D01*
X008930Y018180D01*
X008930Y017680D01*
X008680Y017430D01*
X005430Y016430D02*
X005430Y015930D01*
X005180Y015680D01*
X004680Y015680D01*
X004430Y015930D01*
X004180Y015680D01*
X003680Y015680D01*
X003430Y015930D01*
X003430Y016430D01*
X003680Y016680D01*
X004180Y016680D01*
X004430Y016430D01*
X004680Y016680D01*
X005180Y016680D01*
X005430Y016430D01*
X004430Y016430D02*
X004430Y015930D01*
X003430Y015930D02*
X003180Y015680D01*
X002680Y015680D01*
X002430Y015930D01*
X002180Y015680D01*
X001680Y015680D01*
X001430Y015930D01*
X001430Y016430D01*
X001680Y016680D01*
X002180Y016680D01*
X002430Y016430D01*
X002680Y016680D01*
X003180Y016680D01*
X003430Y016430D01*
X002430Y016430D02*
X002430Y015930D01*
X002180Y018180D02*
X001680Y018180D01*
X001430Y018430D01*
X001430Y018930D01*
X001680Y019180D01*
X002180Y019180D01*
X002430Y018930D01*
X002430Y018430D01*
X002180Y018180D01*
X013430Y009930D02*
X013430Y009430D01*
X013680Y009180D01*
X014180Y009180D01*
X014430Y009430D01*
X014430Y009930D01*
X014180Y010180D01*
X013680Y010180D01*
X013430Y009930D01*
X014430Y009930D02*
X014680Y010180D01*
X015180Y010180D01*
X015430Y009930D01*
X015430Y009430D01*
X015180Y009180D01*
X014680Y009180D01*
X014430Y009430D01*
X015680Y009430D02*
X015680Y009930D01*
X015930Y010180D01*
X016430Y010180D01*
X016680Y009930D01*
X016930Y010180D01*
X017430Y010180D01*
X017680Y009930D01*
X017680Y009430D01*
X017430Y009180D01*
X016930Y009180D01*
X016680Y009430D01*
X016430Y009180D01*
X015930Y009180D01*
X015680Y009430D01*
X016680Y009430D02*
X016680Y009930D01*
X017430Y010930D02*
X015930Y010930D01*
X015680Y011180D01*
X015680Y011680D01*
X015930Y011930D01*
X017430Y011930D01*
X017680Y011680D01*
X017680Y011180D01*
X017430Y010930D01*
X018259Y010249D02*
X018900Y010249D01*
X018686Y010249D02*
X018473Y010569D01*
X018473Y010893D02*
X018473Y011106D01*
X018580Y011213D01*
X018900Y011213D01*
X018900Y010893D01*
X018793Y010786D01*
X018686Y010893D01*
X018686Y011213D01*
X018580Y011431D02*
X018473Y011538D01*
X018473Y011858D01*
X018686Y011751D02*
X018686Y011538D01*
X018580Y011431D01*
X018900Y011431D02*
X018900Y011751D01*
X018793Y011858D01*
X018686Y011751D01*
X018793Y012720D02*
X018366Y012720D01*
X018259Y012827D01*
X018259Y013040D01*
X018366Y013147D01*
X018259Y013364D02*
X018900Y013364D01*
X018793Y013147D02*
X018900Y013040D01*
X018900Y012827D01*
X018793Y012720D01*
X018580Y013364D02*
X018473Y013471D01*
X018473Y013685D01*
X018580Y013791D01*
X018900Y013791D01*
X018793Y014009D02*
X018580Y014009D01*
X018473Y014116D01*
X018473Y014329D01*
X018580Y014436D01*
X018793Y014436D01*
X018900Y014329D01*
X018900Y014116D01*
X018793Y014009D01*
X019114Y014654D02*
X019114Y014760D01*
X019007Y014867D01*
X018473Y014867D01*
X018259Y014867D02*
X018153Y014867D01*
X018473Y015083D02*
X018473Y015403D01*
X018580Y015510D01*
X018900Y015510D01*
X018793Y015728D02*
X018686Y015835D01*
X018686Y016155D01*
X018580Y016155D02*
X018900Y016155D01*
X018900Y015835D01*
X018793Y015728D01*
X018473Y015835D02*
X018473Y016048D01*
X018580Y016155D01*
X018580Y016372D02*
X018473Y016479D01*
X018473Y016799D01*
X018686Y017017D02*
X018473Y017337D01*
X018473Y017554D02*
X018473Y017661D01*
X018900Y017661D01*
X018900Y017554D02*
X018900Y017768D01*
X018900Y017337D02*
X018686Y017017D01*
X018900Y017017D02*
X018259Y017017D01*
X018259Y017661D02*
X018153Y017661D01*
X018900Y016799D02*
X018900Y016479D01*
X018793Y016372D01*
X018580Y016372D01*
X017680Y015680D02*
X017680Y015180D01*
X017430Y014930D01*
X015930Y014930D01*
X015680Y014680D01*
X015680Y014180D01*
X015930Y013930D01*
X017430Y013930D01*
X017680Y013680D01*
X017680Y013180D01*
X017430Y012930D01*
X015930Y012930D01*
X015680Y012680D01*
X015680Y012180D01*
X015930Y011930D01*
X015930Y012930D02*
X015680Y013180D01*
X015680Y013680D01*
X015930Y013930D01*
X015930Y014930D02*
X015680Y015180D01*
X015680Y015680D01*
X015930Y015930D01*
X017430Y015930D01*
X017680Y015680D01*
X017430Y014930D02*
X017680Y014680D01*
X017680Y014180D01*
X017430Y013930D01*
X017430Y012930D02*
X017680Y012680D01*
X017680Y012180D01*
X017430Y011930D01*
X018900Y010569D02*
X018686Y010249D01*
X018900Y010032D02*
X018473Y010032D01*
X018900Y010032D02*
X018900Y009711D01*
X018793Y009605D01*
X018473Y009605D01*
X018900Y009387D02*
X018900Y008960D01*
X018259Y008960D01*
X018473Y015083D02*
X018900Y015083D01*
X016430Y019180D02*
X015930Y019180D01*
X015680Y019430D01*
X015680Y019930D01*
X015930Y020180D01*
X015680Y020430D01*
X015680Y020930D01*
X015930Y021180D01*
X016430Y021180D01*
X016680Y020930D01*
X016680Y020430D01*
X016430Y020180D01*
X016680Y019930D01*
X016680Y019430D01*
X016430Y019180D01*
X016430Y020180D02*
X015930Y020180D01*
X015930Y001930D02*
X015430Y001930D01*
X015180Y001680D01*
X014930Y001930D01*
X014430Y001930D01*
X014180Y001680D01*
X014180Y001180D01*
X014430Y000930D01*
X014930Y000930D01*
X015180Y001180D01*
X015180Y001680D01*
X015180Y001180D02*
X015430Y000930D01*
X015930Y000930D01*
X016180Y001180D01*
X016180Y001680D01*
X015930Y001930D01*
X013680Y001680D02*
X013680Y001180D01*
X013430Y000930D01*
X012930Y000930D01*
X012680Y001180D01*
X012430Y000930D01*
X011930Y000930D01*
X011680Y001180D01*
X011680Y001680D01*
X011930Y001930D01*
X012430Y001930D01*
X012680Y001680D01*
X012930Y001930D01*
X013430Y001930D01*
X013680Y001680D01*
X012680Y001680D02*
X012680Y001180D01*
D11*
X018045Y002945D02*
X018045Y003192D01*
X018045Y003313D02*
X018045Y003498D01*
X018106Y003560D01*
X018168Y003560D01*
X018230Y003498D01*
X018230Y003313D01*
X018415Y003313D02*
X018415Y003498D01*
X018353Y003560D01*
X018292Y003560D01*
X018230Y003498D01*
X018230Y003682D02*
X018230Y003867D01*
X018292Y003929D01*
X018353Y003929D01*
X018415Y003867D01*
X018415Y003743D01*
X018353Y003682D01*
X018230Y003682D01*
X018106Y003805D01*
X018045Y003929D01*
X018230Y004050D02*
X018230Y004235D01*
X018292Y004297D01*
X018353Y004297D01*
X018415Y004235D01*
X018415Y004112D01*
X018353Y004050D01*
X018230Y004050D01*
X018106Y004173D01*
X018045Y004297D01*
X018168Y004418D02*
X018045Y004542D01*
X018415Y004542D01*
X018415Y004665D02*
X018415Y004418D01*
X018415Y004787D02*
X018168Y005033D01*
X018106Y005033D01*
X018045Y004972D01*
X018045Y004848D01*
X018106Y004787D01*
X018415Y004787D02*
X018415Y005033D01*
X018415Y003313D02*
X018045Y003313D01*
X018045Y003068D02*
X018415Y003068D01*
X008813Y013945D02*
X008716Y013945D01*
X008668Y013993D01*
X008668Y014042D01*
X008716Y014090D01*
X008813Y014090D01*
X008861Y014042D01*
X008861Y013993D01*
X008813Y013945D01*
X008813Y014090D02*
X008861Y014138D01*
X008861Y014187D01*
X008813Y014235D01*
X008716Y014235D01*
X008668Y014187D01*
X008668Y014138D01*
X008716Y014090D01*
X008566Y014042D02*
X008566Y013993D01*
X008518Y013945D01*
X008421Y013945D01*
X008373Y013993D01*
X008373Y014042D01*
X008421Y014090D01*
X008518Y014090D01*
X008566Y014042D01*
X008518Y014090D02*
X008566Y014138D01*
X008566Y014187D01*
X008518Y014235D01*
X008421Y014235D01*
X008373Y014187D01*
X008373Y014138D01*
X008421Y014090D01*
X008272Y014090D02*
X008078Y014090D01*
X008078Y014138D02*
X008175Y014235D01*
X008272Y014138D01*
X008272Y013945D01*
X008078Y013945D02*
X008078Y014138D01*
X007977Y014090D02*
X007977Y013993D01*
X007929Y013945D01*
X007832Y013945D01*
X007784Y013993D01*
X007784Y014187D01*
X007832Y014235D01*
X007929Y014235D01*
X007977Y014187D01*
X007977Y014090D02*
X007880Y014090D01*
X007682Y013945D02*
X007489Y013945D01*
X007489Y014235D01*
X007682Y014235D01*
X007586Y014090D02*
X007489Y014090D01*
X007388Y014235D02*
X007388Y013945D01*
X007194Y013945D02*
X007194Y014235D01*
X007291Y014138D01*
X007388Y014235D01*
X007093Y014235D02*
X006900Y014235D01*
X006996Y014235D02*
X006996Y013945D01*
X006798Y013945D02*
X006798Y014138D01*
X006702Y014235D01*
X006605Y014138D01*
X006605Y013945D01*
X006605Y014090D02*
X006798Y014090D01*
D12*
X007580Y009518D02*
X007880Y009217D01*
X007955Y009292D01*
X007955Y009443D01*
X007880Y009518D01*
X007580Y009518D01*
X007505Y009443D01*
X007505Y009292D01*
X007580Y009217D01*
X007880Y009217D01*
X007955Y009057D02*
X007955Y008757D01*
X007655Y009057D01*
X007580Y009057D01*
X007505Y008982D01*
X007505Y008832D01*
X007580Y008757D01*
X007580Y008597D02*
X007655Y008597D01*
X007730Y008522D01*
X007730Y008297D01*
X007805Y008136D02*
X007880Y008136D01*
X007955Y008061D01*
X007955Y007911D01*
X007880Y007836D01*
X007805Y007836D01*
X007730Y007911D01*
X007730Y008061D01*
X007805Y008136D01*
X007730Y008061D02*
X007655Y008136D01*
X007580Y008136D01*
X007505Y008061D01*
X007505Y007911D01*
X007580Y007836D01*
X007655Y007836D01*
X007730Y007911D01*
X007955Y007676D02*
X007955Y007376D01*
X007955Y007526D02*
X007505Y007526D01*
X007655Y007376D01*
X007580Y007216D02*
X007505Y007141D01*
X007505Y006990D01*
X007580Y006915D01*
X007655Y006915D01*
X007730Y006990D01*
X007730Y007141D01*
X007805Y007216D01*
X007880Y007216D01*
X007955Y007141D01*
X007955Y006990D01*
X007880Y006915D01*
X007880Y006755D02*
X007580Y006755D01*
X007505Y006680D01*
X007505Y006455D01*
X007955Y006455D01*
X007955Y006680D01*
X007880Y006755D01*
X007955Y008297D02*
X007505Y008297D01*
X007505Y008522D01*
X007580Y008597D01*
X007730Y008522D02*
X007805Y008597D01*
X007880Y008597D01*
X007955Y008522D01*
X007955Y008297D01*
X009993Y008383D02*
X009993Y002477D01*
X017867Y002477D01*
X017867Y008383D01*
X009993Y008383D01*
X012552Y006217D02*
X012552Y004643D01*
X012749Y004643D01*
X012749Y004249D01*
X012946Y004249D02*
X012946Y004643D01*
X013143Y004643D01*
X013143Y004249D01*
X013339Y004249D02*
X013339Y004643D01*
X013536Y004643D01*
X013536Y004249D01*
X013733Y004249D02*
X013733Y004643D01*
X013930Y004643D01*
X013930Y004249D01*
X014127Y004249D02*
X014127Y004643D01*
X014324Y004643D01*
X014324Y004249D01*
X014521Y004249D02*
X014521Y004643D01*
X014717Y004643D01*
X014717Y004249D01*
X014914Y004249D02*
X014914Y004643D01*
X015111Y004643D01*
X015111Y006217D01*
X014914Y006217D01*
X014914Y006611D01*
X014717Y006611D02*
X014717Y006217D01*
X014521Y006217D01*
X014521Y006611D01*
X014324Y006611D02*
X014324Y006217D01*
X014127Y006217D01*
X014127Y006611D01*
X013930Y006611D02*
X013930Y006217D01*
X013733Y006217D01*
X013733Y006611D01*
X013536Y006611D02*
X013536Y006217D01*
X013339Y006217D01*
X013339Y006611D01*
X013143Y006611D02*
X013143Y006217D01*
X012946Y006217D01*
X012946Y006611D01*
X012749Y006611D02*
X012749Y006217D01*
X012552Y006217D01*
X012749Y006217D02*
X012946Y006217D01*
X013143Y006217D02*
X013339Y006217D01*
X013536Y006217D02*
X013733Y006217D01*
X013930Y006217D02*
X014127Y006217D01*
X014324Y006217D02*
X014521Y006217D01*
X014717Y006217D02*
X014914Y006217D01*
X014914Y004643D02*
X014717Y004643D01*
X014521Y004643D02*
X014324Y004643D01*
X014127Y004643D02*
X013930Y004643D01*
X013733Y004643D02*
X013536Y004643D01*
X013339Y004643D02*
X013143Y004643D01*
X012946Y004643D02*
X012749Y004643D01*
D13*
X003763Y002960D02*
X001597Y002960D01*
X001460Y003786D02*
X001460Y004574D01*
X001597Y005400D02*
X003763Y005400D01*
X003900Y004574D02*
X003900Y003786D01*
X001991Y004180D02*
X001993Y004232D01*
X001999Y004284D01*
X002009Y004335D01*
X002022Y004385D01*
X002040Y004435D01*
X002061Y004482D01*
X002085Y004528D01*
X002114Y004572D01*
X002145Y004614D01*
X002179Y004653D01*
X002216Y004690D01*
X002256Y004723D01*
X002299Y004754D01*
X002343Y004781D01*
X002389Y004805D01*
X002438Y004825D01*
X002487Y004841D01*
X002538Y004854D01*
X002589Y004863D01*
X002641Y004868D01*
X002693Y004869D01*
X002745Y004866D01*
X002797Y004859D01*
X002848Y004848D01*
X002898Y004834D01*
X002947Y004815D01*
X002994Y004793D01*
X003039Y004768D01*
X003083Y004739D01*
X003124Y004707D01*
X003163Y004672D01*
X003198Y004634D01*
X003231Y004593D01*
X003261Y004551D01*
X003287Y004506D01*
X003310Y004459D01*
X003329Y004410D01*
X003345Y004360D01*
X003357Y004310D01*
X003365Y004258D01*
X003369Y004206D01*
X003369Y004154D01*
X003365Y004102D01*
X003357Y004050D01*
X003345Y004000D01*
X003329Y003950D01*
X003310Y003901D01*
X003287Y003854D01*
X003261Y003809D01*
X003231Y003767D01*
X003198Y003726D01*
X003163Y003688D01*
X003124Y003653D01*
X003083Y003621D01*
X003039Y003592D01*
X002994Y003567D01*
X002947Y003545D01*
X002898Y003526D01*
X002848Y003512D01*
X002797Y003501D01*
X002745Y003494D01*
X002693Y003491D01*
X002641Y003492D01*
X002589Y003497D01*
X002538Y003506D01*
X002487Y003519D01*
X002438Y003535D01*
X002389Y003555D01*
X002343Y003579D01*
X002299Y003606D01*
X002256Y003637D01*
X002216Y003670D01*
X002179Y003707D01*
X002145Y003746D01*
X002114Y003788D01*
X002085Y003832D01*
X002061Y003878D01*
X002040Y003925D01*
X002022Y003975D01*
X002009Y004025D01*
X001999Y004076D01*
X001993Y004128D01*
X001991Y004180D01*
X007230Y018890D02*
X007230Y021470D01*
X008630Y021470D01*
X008630Y018890D01*
X007230Y018890D01*
D14*
X007680Y018950D02*
X008140Y018950D01*
X008140Y019257D01*
X008140Y019410D02*
X007680Y019410D01*
X007833Y019564D01*
X007680Y019717D01*
X008140Y019717D01*
X008140Y019871D02*
X008140Y020178D01*
X008140Y020331D02*
X008140Y020638D01*
X008140Y020485D02*
X007680Y020485D01*
X007833Y020331D01*
X007680Y020024D02*
X008140Y020024D01*
X007833Y019871D02*
X007680Y020024D01*
X007833Y020792D02*
X007680Y020945D01*
X008140Y020945D01*
X008140Y020792D02*
X008140Y021098D01*
X008140Y021252D02*
X008063Y021252D01*
X007756Y021559D01*
X007680Y021559D01*
X007680Y021252D01*
X006910Y021090D02*
X006630Y021090D01*
X006770Y020950D01*
X006770Y021137D01*
X009330Y020742D02*
X009376Y020789D01*
X009423Y020789D01*
X009470Y020742D01*
X009517Y020789D01*
X009563Y020789D01*
X009610Y020742D01*
X009610Y020649D01*
X009563Y020602D01*
X009470Y020695D02*
X009470Y020742D01*
X009330Y020742D02*
X009330Y020649D01*
X009376Y020602D01*
X009950Y020641D02*
X009950Y020487D01*
X010026Y020410D01*
X010026Y020257D02*
X009950Y020180D01*
X009950Y020027D01*
X010026Y019950D01*
X010333Y019950D01*
X010410Y020027D01*
X010410Y020180D01*
X010333Y020257D01*
X010333Y020410D02*
X010410Y020487D01*
X010410Y020641D01*
X010333Y020717D01*
X010257Y020717D01*
X010180Y020641D01*
X010180Y020564D01*
X010180Y020641D02*
X010103Y020717D01*
X010026Y020717D01*
X009950Y020641D01*
X009614Y019879D02*
X009614Y019692D01*
X009427Y019879D01*
X009380Y019879D01*
X009333Y019832D01*
X009333Y019739D01*
X009380Y019692D01*
X009610Y019028D02*
X009610Y018841D01*
X009610Y018934D02*
X009330Y018934D01*
X009423Y018841D01*
X009950Y018891D02*
X010180Y018660D01*
X010180Y018967D01*
X010410Y018891D02*
X009950Y018891D01*
X010026Y018507D02*
X009950Y018430D01*
X009950Y018277D01*
X010026Y018200D01*
X010333Y018200D01*
X010410Y018277D01*
X010410Y018430D01*
X010333Y018507D01*
X011950Y017891D02*
X011950Y017737D01*
X012026Y017660D01*
X012026Y017507D02*
X011950Y017430D01*
X011950Y017277D01*
X012026Y017200D01*
X012333Y017200D01*
X012410Y017277D01*
X012410Y017430D01*
X012333Y017507D01*
X012410Y017660D02*
X012103Y017967D01*
X012026Y017967D01*
X011950Y017891D01*
X012410Y017967D02*
X012410Y017660D01*
X013950Y016410D02*
X013950Y015950D01*
X013950Y016103D02*
X014180Y016103D01*
X014257Y016180D01*
X014257Y016334D01*
X014180Y016410D01*
X013950Y016410D01*
X014103Y016103D02*
X014257Y015950D01*
X014410Y016027D02*
X014410Y016103D01*
X014487Y016180D01*
X014641Y016180D01*
X014717Y016103D01*
X014717Y016027D01*
X014641Y015950D01*
X014487Y015950D01*
X014410Y016027D01*
X014487Y016180D02*
X014410Y016257D01*
X014410Y016334D01*
X014487Y016410D01*
X014641Y016410D01*
X014717Y016334D01*
X014717Y016257D01*
X014641Y016180D01*
X014717Y015410D02*
X014410Y015410D01*
X014257Y015334D02*
X014257Y015180D01*
X014180Y015103D01*
X013950Y015103D01*
X013950Y014950D02*
X013950Y015410D01*
X014180Y015410D01*
X014257Y015334D01*
X014103Y015103D02*
X014257Y014950D01*
X014410Y014950D02*
X014410Y015027D01*
X014717Y015334D01*
X014717Y015410D01*
X014717Y014410D02*
X014564Y014334D01*
X014410Y014180D01*
X014641Y014180D01*
X014717Y014103D01*
X014717Y014027D01*
X014641Y013950D01*
X014487Y013950D01*
X014410Y014027D01*
X014410Y014180D01*
X014257Y014180D02*
X014257Y014334D01*
X014180Y014410D01*
X013950Y014410D01*
X013950Y013950D01*
X013950Y014103D02*
X014180Y014103D01*
X014257Y014180D01*
X014103Y014103D02*
X014257Y013950D01*
X014310Y011197D02*
X014310Y010890D01*
X014310Y011043D02*
X013850Y011043D01*
X014003Y010890D01*
X014310Y010736D02*
X014310Y010429D01*
X013850Y010429D01*
X012910Y010606D02*
X012910Y010759D01*
X012833Y010836D01*
X012833Y010990D02*
X012910Y011066D01*
X012910Y011220D01*
X012833Y011297D01*
X012757Y011297D01*
X012680Y011220D01*
X012680Y010990D01*
X012833Y010990D01*
X012680Y010990D02*
X012526Y011143D01*
X012450Y011297D01*
X012526Y010836D02*
X012450Y010759D01*
X012450Y010606D01*
X012526Y010529D01*
X012833Y010529D01*
X012910Y010606D01*
X011410Y010856D02*
X011410Y011009D01*
X011333Y011086D01*
X011333Y011240D02*
X011410Y011316D01*
X011410Y011470D01*
X011333Y011547D01*
X011180Y011547D01*
X011103Y011470D01*
X011103Y011393D01*
X011180Y011240D01*
X010950Y011240D01*
X010950Y011547D01*
X011026Y011086D02*
X010950Y011009D01*
X010950Y010856D01*
X011026Y010779D01*
X011333Y010779D01*
X011410Y010856D01*
X010547Y013950D02*
X010240Y013950D01*
X010393Y013950D02*
X010393Y014410D01*
X010240Y014257D01*
X010086Y014334D02*
X010009Y014410D01*
X009779Y014410D01*
X009779Y013950D01*
X010009Y013950D01*
X010086Y014027D01*
X010086Y014334D01*
X010009Y014950D02*
X009779Y014950D01*
X009779Y015410D01*
X010009Y015410D01*
X010086Y015334D01*
X010086Y015027D01*
X010009Y014950D01*
X010240Y014950D02*
X010547Y015257D01*
X010547Y015334D01*
X010470Y015410D01*
X010316Y015410D01*
X010240Y015334D01*
X010240Y014950D02*
X010547Y014950D01*
X009626Y014950D02*
X009319Y014950D01*
X009319Y015410D01*
X009626Y015410D01*
X009472Y015180D02*
X009319Y015180D01*
X009165Y014950D02*
X008858Y014950D01*
X008858Y015410D01*
X008858Y015950D02*
X009165Y015950D01*
X009319Y015950D02*
X009626Y015950D01*
X009779Y015950D02*
X010009Y015950D01*
X010086Y016027D01*
X010086Y016334D01*
X010009Y016410D01*
X009779Y016410D01*
X009779Y015950D01*
X009472Y016180D02*
X009319Y016180D01*
X009319Y016410D02*
X009319Y015950D01*
X009319Y016410D02*
X009626Y016410D01*
X010240Y016334D02*
X010316Y016410D01*
X010470Y016410D01*
X010547Y016334D01*
X010547Y016257D01*
X010470Y016180D01*
X010547Y016103D01*
X010547Y016027D01*
X010470Y015950D01*
X010316Y015950D01*
X010240Y016027D01*
X010393Y016180D02*
X010470Y016180D01*
X008858Y016410D02*
X008858Y015950D01*
X008858Y014410D02*
X008858Y013950D01*
X009165Y013950D01*
X009319Y013950D02*
X009626Y013950D01*
X009472Y014180D02*
X009319Y014180D01*
X009319Y014410D02*
X009319Y013950D01*
X009319Y014410D02*
X009626Y014410D01*
X014450Y017950D02*
X014450Y018180D01*
X014526Y018257D01*
X014680Y018257D01*
X014757Y018180D01*
X014757Y017950D01*
X014910Y017950D02*
X014450Y017950D01*
X014757Y018103D02*
X014910Y018257D01*
X014680Y018410D02*
X014680Y018717D01*
X014910Y018641D02*
X014450Y018641D01*
X014680Y018410D01*
X015950Y018410D02*
X016180Y018410D01*
X016103Y018564D01*
X016103Y018641D01*
X016180Y018717D01*
X016333Y018717D01*
X016410Y018641D01*
X016410Y018487D01*
X016333Y018410D01*
X016410Y018257D02*
X016257Y018103D01*
X016257Y018180D02*
X016257Y017950D01*
X016410Y017950D02*
X015950Y017950D01*
X015950Y018180D01*
X016026Y018257D01*
X016180Y018257D01*
X016257Y018180D01*
X015950Y018410D02*
X015950Y018717D01*
X004160Y018660D02*
X004160Y018967D01*
X004160Y018814D02*
X003700Y018814D01*
X003853Y018660D01*
X003776Y018507D02*
X003700Y018430D01*
X003700Y018277D01*
X003776Y018200D01*
X004083Y018200D01*
X004160Y018277D01*
X004160Y018430D01*
X004083Y018507D01*
X004007Y014717D02*
X004083Y014717D01*
X004160Y014641D01*
X004160Y014487D01*
X004083Y014410D01*
X004160Y014257D02*
X004007Y014103D01*
X004007Y014180D02*
X004007Y013950D01*
X004160Y013950D02*
X003700Y013950D01*
X003700Y014180D01*
X003776Y014257D01*
X003930Y014257D01*
X004007Y014180D01*
X003776Y014410D02*
X003700Y014487D01*
X003700Y014641D01*
X003776Y014717D01*
X003853Y014717D01*
X003930Y014641D01*
X004007Y014717D01*
X003930Y014641D02*
X003930Y014564D01*
X001910Y014487D02*
X001910Y014641D01*
X001833Y014717D01*
X001526Y014717D01*
X001450Y014641D01*
X001450Y014487D01*
X001526Y014410D01*
X001603Y014410D01*
X001680Y014487D01*
X001680Y014717D01*
X001910Y014487D02*
X001833Y014410D01*
X001833Y014257D02*
X001910Y014180D01*
X001910Y014027D01*
X001833Y013950D01*
X001526Y013950D01*
X001450Y014027D01*
X001450Y014180D01*
X001526Y014257D01*
X002700Y012143D02*
X003160Y012143D01*
X003160Y011990D02*
X003160Y012297D01*
X002853Y011990D02*
X002700Y012143D01*
X002776Y011836D02*
X002930Y011836D01*
X003007Y011759D01*
X003007Y011529D01*
X003160Y011529D02*
X002700Y011529D01*
X002700Y011759D01*
X002776Y011836D01*
X003007Y011683D02*
X003160Y011836D01*
X001910Y011660D02*
X001833Y011660D01*
X001526Y011967D01*
X001450Y011967D01*
X001450Y011660D01*
X001526Y011507D02*
X001450Y011430D01*
X001450Y011277D01*
X001526Y011200D01*
X001833Y011200D01*
X001910Y011277D01*
X001910Y011430D01*
X001833Y011507D01*
X001833Y008967D02*
X001757Y008967D01*
X001680Y008891D01*
X001680Y008737D01*
X001603Y008660D01*
X001526Y008660D01*
X001450Y008737D01*
X001450Y008891D01*
X001526Y008967D01*
X001603Y008967D01*
X001680Y008891D01*
X001680Y008737D02*
X001757Y008660D01*
X001833Y008660D01*
X001910Y008737D01*
X001910Y008891D01*
X001833Y008967D01*
X001833Y008507D02*
X001910Y008430D01*
X001910Y008277D01*
X001833Y008200D01*
X001526Y008200D01*
X001450Y008277D01*
X001450Y008430D01*
X001526Y008507D01*
D15*
X007341Y008777D02*
X007310Y008738D01*
X007311Y008738D02*
X007264Y008773D01*
X007215Y008804D01*
X007164Y008833D01*
X007112Y008860D01*
X007132Y008905D01*
X007133Y008905D01*
X007188Y008878D01*
X007241Y008847D01*
X007292Y008814D01*
X007342Y008777D01*
X007336Y008770D01*
X007287Y008806D01*
X007236Y008839D01*
X007183Y008870D01*
X007129Y008897D01*
X007125Y008889D01*
X007179Y008862D01*
X007231Y008832D01*
X007282Y008799D01*
X007330Y008763D01*
X007325Y008756D01*
X007277Y008792D01*
X007227Y008824D01*
X007175Y008854D01*
X007121Y008880D01*
X007118Y008872D01*
X007171Y008846D01*
X007222Y008816D01*
X007272Y008784D01*
X007319Y008749D01*
X007314Y008742D01*
X007266Y008777D01*
X007217Y008809D01*
X007166Y008838D01*
X007114Y008864D01*
X006218Y008900D02*
X006239Y008855D01*
X006183Y008827D01*
X006130Y008795D01*
X006078Y008760D01*
X006029Y008722D01*
X005982Y008681D01*
X005938Y008637D01*
X005896Y008590D01*
X005857Y008541D01*
X005822Y008490D01*
X005789Y008437D01*
X005760Y008382D01*
X005734Y008325D01*
X005712Y008267D01*
X005693Y008207D01*
X005678Y008147D01*
X005667Y008085D01*
X005659Y008023D01*
X005655Y007961D01*
X005655Y007899D01*
X005659Y007837D01*
X005667Y007775D01*
X005678Y007713D01*
X005693Y007653D01*
X005712Y007593D01*
X005734Y007535D01*
X005760Y007478D01*
X005789Y007423D01*
X005822Y007370D01*
X005857Y007319D01*
X005896Y007270D01*
X005938Y007223D01*
X005982Y007179D01*
X006029Y007138D01*
X006078Y007100D01*
X006130Y007065D01*
X006183Y007033D01*
X006239Y007005D01*
X006218Y006960D01*
X006161Y006989D01*
X006106Y007021D01*
X006053Y007057D01*
X006003Y007095D01*
X005954Y007137D01*
X005909Y007181D01*
X005866Y007228D01*
X005826Y007278D01*
X005788Y007329D01*
X005754Y007383D01*
X005724Y007439D01*
X005696Y007497D01*
X005672Y007556D01*
X005652Y007616D01*
X005635Y007678D01*
X005622Y007740D01*
X005613Y007803D01*
X005607Y007866D01*
X005605Y007930D01*
X005607Y007994D01*
X005613Y008057D01*
X005622Y008120D01*
X005635Y008182D01*
X005652Y008244D01*
X005672Y008304D01*
X005696Y008363D01*
X005724Y008421D01*
X005754Y008477D01*
X005788Y008531D01*
X005826Y008582D01*
X005866Y008632D01*
X005909Y008679D01*
X005954Y008723D01*
X006003Y008765D01*
X006053Y008803D01*
X006106Y008839D01*
X006161Y008871D01*
X006218Y008900D01*
X006221Y008892D01*
X006164Y008863D01*
X006108Y008830D01*
X006054Y008793D01*
X006003Y008753D01*
X005954Y008711D01*
X005908Y008665D01*
X005865Y008617D01*
X005824Y008566D01*
X005787Y008513D01*
X005754Y008457D01*
X005723Y008400D01*
X005696Y008341D01*
X005673Y008280D01*
X005654Y008218D01*
X005638Y008155D01*
X005626Y008092D01*
X005618Y008027D01*
X005614Y007962D01*
X005614Y007898D01*
X005618Y007833D01*
X005626Y007768D01*
X005638Y007705D01*
X005654Y007642D01*
X005673Y007580D01*
X005696Y007519D01*
X005723Y007460D01*
X005754Y007403D01*
X005787Y007347D01*
X005824Y007294D01*
X005865Y007243D01*
X005908Y007195D01*
X005954Y007149D01*
X006003Y007107D01*
X006054Y007067D01*
X006108Y007030D01*
X006164Y006997D01*
X006221Y006968D01*
X006225Y006976D01*
X006168Y007005D01*
X006113Y007038D01*
X006060Y007074D01*
X006009Y007114D01*
X005960Y007156D01*
X005914Y007201D01*
X005872Y007249D01*
X005832Y007299D01*
X005795Y007352D01*
X005761Y007407D01*
X005731Y007464D01*
X005705Y007523D01*
X005682Y007583D01*
X005662Y007644D01*
X005647Y007707D01*
X005635Y007770D01*
X005627Y007834D01*
X005623Y007898D01*
X005623Y007962D01*
X005627Y008026D01*
X005635Y008090D01*
X005647Y008153D01*
X005662Y008216D01*
X005682Y008277D01*
X005705Y008337D01*
X005731Y008396D01*
X005761Y008453D01*
X005795Y008508D01*
X005832Y008561D01*
X005872Y008611D01*
X005914Y008659D01*
X005960Y008704D01*
X006009Y008746D01*
X006060Y008786D01*
X006113Y008822D01*
X006168Y008855D01*
X006225Y008884D01*
X006229Y008876D01*
X006172Y008847D01*
X006118Y008814D01*
X006065Y008778D01*
X006014Y008739D01*
X005966Y008697D01*
X005921Y008653D01*
X005878Y008605D01*
X005839Y008555D01*
X005802Y008503D01*
X005769Y008448D01*
X005739Y008392D01*
X005713Y008334D01*
X005690Y008274D01*
X005671Y008213D01*
X005656Y008152D01*
X005644Y008089D01*
X005636Y008026D01*
X005632Y007962D01*
X005632Y007898D01*
X005636Y007834D01*
X005644Y007771D01*
X005656Y007708D01*
X005671Y007647D01*
X005690Y007586D01*
X005713Y007526D01*
X005739Y007468D01*
X005769Y007412D01*
X005802Y007357D01*
X005839Y007305D01*
X005878Y007255D01*
X005921Y007207D01*
X005966Y007163D01*
X006014Y007121D01*
X006065Y007082D01*
X006118Y007046D01*
X006172Y007013D01*
X006229Y006984D01*
X006233Y006992D01*
X006177Y007021D01*
X006122Y007053D01*
X006070Y007089D01*
X006020Y007128D01*
X005972Y007169D01*
X005927Y007214D01*
X005885Y007261D01*
X005846Y007310D01*
X005810Y007362D01*
X005777Y007416D01*
X005747Y007472D01*
X005721Y007530D01*
X005699Y007589D01*
X005680Y007649D01*
X005664Y007710D01*
X005653Y007773D01*
X005645Y007835D01*
X005641Y007898D01*
X005641Y007962D01*
X005645Y008025D01*
X005653Y008087D01*
X005664Y008150D01*
X005680Y008211D01*
X005699Y008271D01*
X005721Y008330D01*
X005747Y008388D01*
X005777Y008444D01*
X005810Y008498D01*
X005846Y008550D01*
X005885Y008599D01*
X005927Y008646D01*
X005972Y008691D01*
X006020Y008732D01*
X006070Y008771D01*
X006122Y008807D01*
X006177Y008839D01*
X006233Y008868D01*
X006237Y008860D01*
X006181Y008831D01*
X006127Y008799D01*
X006075Y008764D01*
X006026Y008726D01*
X005979Y008684D01*
X005934Y008640D01*
X005892Y008593D01*
X005853Y008544D01*
X005817Y008493D01*
X005785Y008439D01*
X005755Y008384D01*
X005730Y008327D01*
X005707Y008268D01*
X005688Y008209D01*
X005673Y008148D01*
X005662Y008086D01*
X005654Y008024D01*
X005650Y007961D01*
X005650Y007899D01*
X005654Y007836D01*
X005662Y007774D01*
X005673Y007712D01*
X005688Y007651D01*
X005707Y007592D01*
X005730Y007533D01*
X005755Y007476D01*
X005785Y007421D01*
X005817Y007367D01*
X005853Y007316D01*
X005892Y007267D01*
X005934Y007220D01*
X005979Y007176D01*
X006026Y007134D01*
X006075Y007096D01*
X006127Y007061D01*
X006181Y007029D01*
X006237Y007000D01*
X007142Y006960D02*
X007121Y007005D01*
X007171Y007030D01*
X007219Y007058D01*
X007266Y007089D01*
X007311Y007122D01*
X007341Y007083D01*
X007342Y007083D01*
X007294Y007048D01*
X007245Y007016D01*
X007195Y006986D01*
X007142Y006960D01*
X007139Y006968D01*
X007190Y006994D01*
X007241Y007023D01*
X007289Y007055D01*
X007336Y007090D01*
X007330Y007097D01*
X007284Y007063D01*
X007236Y007031D01*
X007186Y007002D01*
X007135Y006976D01*
X007131Y006984D01*
X007182Y007010D01*
X007231Y007039D01*
X007279Y007070D01*
X007325Y007104D01*
X007319Y007111D01*
X007274Y007077D01*
X007226Y007046D01*
X007177Y007018D01*
X007127Y006992D01*
X007123Y007000D01*
X007173Y007026D01*
X007222Y007054D01*
X007269Y007085D01*
X007314Y007118D01*
D16*
X011489Y013944D03*
X011489Y014416D03*
X011489Y014944D03*
X011489Y015416D03*
X011489Y015944D03*
X011489Y016416D03*
D17*
X011489Y016180D03*
X011489Y015180D03*
X011489Y014180D03*
M02*
